wildlifeDI: Contact Analysis Workflow
…
    st_drop_geometry() |>
    filter(!is.na(contact_pha)) |>
    dplyr::group_by(contact_pha) |>
    dplyr::summarise(
      nfix = n(),
      t1 = min(date),
      t2 = max(date),
      duration = max(date)-min(date),
      avg_d = mean(contact_d,na.rm=T),
      min_d = min(contact_d,na.rm=T),
      max_d = max(contact_d,na.rm=T)
    ) 
consum

## # A tibble: 98 × 8
##    contact_pha  nfix t1                  t2                  duration  avg_d
##          <dbl> <int> <dttm>              <dttm>              <drtn>    <dbl>
##  1           1     2 2011-05-02 04:02:40 2011-05-02 04:32:50 1810 secs  22.0
##  2           2     6 2011-05-03 01:33:01 2011-05-03 04:02:41 8980 secs  23.0
##  3           3     1 2011-05-04 01:02:36 2011-05-04 01:02:36    0 secs  28.9
##  4           4     5 2011-05-05 11:32:40 2011-05-05 13:32:37 7197 secs  32.3
##  5           5     1 2011-05-05 19:02:36 2011-05-05 19:02:36    0 secs  21.2
##  6           6     6 2011-05-06 01:02:36 2011-05-06 03:32:40 9004 secs  27.0
##  7           7     5 2011-05-07 14:02:40 2011-05-07 16:02:37 7197 secs  18.9
##  8           8     5 2011-05-07 20:32:37 2011-05-07 22:32:37 7200 secs  20.6
##  9           9     6 2011-05-08 07:32:39 2011-05-08 10:02:57 9018 secs  31.4
## 10          10     5 2011-05-09 14:02:37 2011-05-09 16:02:40 7203 secs  27.1
## # ℹ 88 more rows
## # ℹ 2 more variables: min_d <dbl>, max_d <dbl>
…
